K:\Cloud.bk.ru\Programming\KhomenkoDbitbucket\PizzaOnline\src\main\java\business\Ingredient.java
K:\Cloud.bk.ru\Programming\KhomenkoDbitbucket\PizzaOnline\src\main\java\business\MyPizza.java
K:\Cloud.bk.ru\Programming\KhomenkoDbitbucket\PizzaOnline\src\main\java\data\DAOdatabase.java
K:\Cloud.bk.ru\Programming\KhomenkoDbitbucket\PizzaOnline\src\main\java\data\Query.java
K:\Cloud.bk.ru\Programming\KhomenkoDbitbucket\PizzaOnline\src\main\java\Servlete.java
K:\Cloud.bk.ru\Programming\KhomenkoDbitbucket\PizzaOnline\src\main\java\CartServlet.java
K:\Cloud.bk.ru\Programming\KhomenkoDbitbucket\PizzaOnline\src\main\java\business\Cart.java
K:\Cloud.bk.ru\Programming\KhomenkoDbitbucket\PizzaOnline\src\main\java\MpageActionContrServlet.java
K:\Cloud.bk.ru\Programming\KhomenkoDbitbucket\PizzaOnline\src\main\java\business\LineItem.java
